[
    {"gid":0,"page":1,"pages":3,"goods_name":"黄丽","price":1.5,"count":330,"image":"/static/images/find4.jpg"},
    {"gid":1,"page":1,"pages":3,"goods_name":"哈哈","price":2.5,"count":130,"image":"/static/images/find5.jpg"},
    {"gid":2,"page":1,"pages":3,"goods_name":"你好","price":55,"count":630,"image":"/static/images/find4.jpg"},
    {"gid":3,"page":1,"pages":3,"goods_name":"名字","price":5.5,"count":330,"image":"/static/images/find5.jpg"},
    {"gid":4,"page":1,"pages":3,"goods_name":"假的","price":6.5,"count":230,"image":"/static/images/find4.jpg"},
    {"gid":5,"page":1,"pages":3,"goods_name":"嘻嘻","price":3.5,"count":530,"image":"/static/images/find5.jpg"},
    {"gid":6,"page":1,"pages":3,"goods_name":"八条","price":15,"count":70,"image":"/static/images/find4.jpg"},
    {"gid":7,"page":1,"pages":3,"goods_name":"哦哦","price":35,"count":930,"image":"/static/images/find4.jpg"},
    {"gid":8,"page":1,"pages":3,"goods_name":"黄丽","price":1.5,"count":330,"image":"/static/images/find4.jpg"},
    {"gid":9,"page":2,"pages":3,"goods_name":"哈哈","price":2.5,"count":130,"image":"/static/images/find5.jpg"},
    {"gid":10,"page":2,"pages":3,"goods_name":"你好","price":55,"count":630,"image":"/static/images/find4.jpg"},
    {"gid":11,"page":2,"pages":3,"goods_name":"名字","price":5.5,"count":330,"image":"/static/images/find5.jpg"},
    {"gid":12,"page":2,"pages":3,"goods_name":"假的","price":6.5,"count":230,"image":"/static/images/find4.jpg"},
    {"gid":13,"page":2,"pages":3,"goods_name":"嘻嘻","price":3.5,"count":530,"image":"/static/images/find5.jpg"},
    {"gid":14,"page":2,"pages":3,"goods_name":"八条","price":15,"count":70,"image":"/static/images/find4.jpg"},
    {"gid":15,"page":2,"pages":3,"goods_name":"哦哦","price":35,"count":930,"image":"/static/images/find4.jpg"}, {"gid":0,"page":1,"pages":3,"goods_name":"黄丽","price":1.5,"count":330,"urlimage":"/static/images/find4.jpg"},
    {"gid":16,"page":3,"pages":3,"goods_name":"哈哈","price":2.5,"count":130,"image":"/static/images/find5.jpg"},
    {"gid":17,"page":3,"pages":3,"goods_name":"你好","price":55,"count":630,"image":"/static/images/find4.jpg"},
    {"gid":18,"page":3,"pages":3,"goods_name":"名字","price":5.5,"count":330,"image":"/static/images/find5.jpg"},
    {"gid":19,"page":3,"pages":3,"goods_name":"假的","price":6.5,"count":230,"image":"/static/images/find4.jpg"},
    {"gid":20,"page":3,"pages":3,"goods_name":"嘻嘻","price":3.5,"count":530,"image":"/static/images/find5.jpg"},
    {"gid":21,"page":3,"pages":3,"goods_name":"八条","price":15,"count":70,"image":"/static/images/find4.jpg"},
    {"gid":22,"page":3,"pages":3,"goods_name":"哦哦","price":35,"count":930,"image":"/static/images/find4.jpg"}
]